{
  "count": 20,
  "totalCount": 1885,
  "page": 6,
  "totalPages": 95,
  "lastItemIndex": 120,
  "results": [
    {
      "tags": [
        "wisdom"
      ],
      "_id": "6vrEW1dd1Q",
      "content": "He who is taught to live upon little owes more to his father's wisdom than he who has a great deal left him does to his father's care.",
      "author": "William C. Menninger",
      "authorSlug": "william-c-menninger",
      "length": 134,
      "dateAdded": "2021-04-23",
      "dateModified": "2021-04-23"
    },
    {
      "tags": [
        "friendship"
      ],
      "_id": "tiBEhHZLpD",
      "content": "The greatest gift of life is friendship, and I have received it.",
      "author": "Hubert Humphrey",
      "authorSlug": "hubert-humphrey",
      "length": 64,
      "dateAdded": "2021-04-23",
      "dateModified": "2021-04-23"
    },
    {
      "tags": [
        "friendship"
      ],
      "_id": "aawMV6-S9",
      "content": "The friendship that can cease has never been real.",
      "author": "Jerome",
      "authorSlug": "jerome",
      "length": 50,
      "dateAdded": "2021-04-23",
      "dateModified": "2021-04-23"
    },
    {
      "tags": [
        "famous-quotes",
        "science"
      ],
      "_id": "nu4Hc01ELHJQ",
      "content": "One may say the eternal mystery of the world is its comprehensibility.",
      "author": "Albert Einstein",
      "authorSlug": "albert-einstein",
      "length": 70,
      "dateAdded": "2021-04-15",
      "dateModified": "2021-04-15"
    },
    {
      "tags": [
        "famous-quotes",
        "friendship"
      ],
      "_id": "zEEnS1yT_mN0",
      "content": "We should all be thankful for those people who rekindle the inner spirit.",
      "author": "Albert Schweitzer",
      "authorSlug": "albert-schweitzer",
      "length": 73,
      "dateAdded": "2021-04-15",
      "dateModified": "2021-04-15"
    },
    {
      "tags": [
        "famous-quotes"
      ],
      "_id": "PTVGpNzPj2ip",
      "content": "I’m not in this world to live up to your expectations and you're not in this world to live up to mine.",
      "author": "Bruce Lee",
      "authorSlug": "bruce-lee",
      "length": 102,
      "dateAdded": "2021-04-15",
      "dateModified": "2021-06-17"
    },
    {
      "tags": [
        "famous-quotes"
      ],
      "_id": "h8BL2VGEZfK",
      "content": "There is no failure except in no longer trying.",
      "author": "Elbert Hubbard",
      "authorSlug": "elbert-hubbard",
      "length": 47,
      "dateAdded": "2021-04-15",
      "dateModified": "2021-04-15"
    },
    {
      "tags": [
        "famous-quotes"
      ],
      "_id": "1WZnUSS47PTK",
      "content": "We are either progressing or retrograding all the while. There is no such thing as remaining stationary in this life.",
      "author": "James Freeman Clarke",
      "authorSlug": "james-freeman-clarke",
      "length": 117,
      "dateAdded": "2021-04-15",
      "dateModified": "2021-04-15"
    },
    {
      "tags": [
        "famous-quotes"
      ],
      "_id": "KsySq34Vlt3",
      "content": "There is no greater harm than that of time wasted.",
      "author": "Michelangelo",
      "authorSlug": "michelangelo",
      "length": 50,
      "dateAdded": "2021-04-15",
      "dateModified": "2021-04-15"
    },
    {
      "tags": [
        "famous-quotes"
      ],
      "_id": "XhtgckYtfGz",
      "content": "Ideas are the beginning points of all fortunes.",
      "author": "Napoleon Hill",
      "authorSlug": "napoleon-hill",
      "length": 47,
      "dateAdded": "2021-04-15",
      "dateModified": "2021-04-15"
    },
    {
      "tags": [
        "famous-quotes"
      ],
      "_id": "oKk8MCHpwgsK",
      "content": "Nothing ever goes away until it has taught us what we need to know.",
      "author": "Pema Chödrön",
      "authorSlug": "pema-chodron",
      "length": 67,
      "dateAdded": "2021-04-15",
      "dateModified": "2021-04-15"
    },
    {
      "tags": [
        "famous-quotes"
      ],
      "_id": "4nWz20xbUO1H",
      "content": "If facts are the seeds that later produce knowledge and wisdom, then the emotions and the impressions of the senses are the fertile soil in which the seeds must grow.",
      "author": "Rachel Carson",
      "authorSlug": "rachel-carson",
      "length": 166,
      "dateAdded": "2021-04-15",
      "dateModified": "2021-04-15"
    },
    {
      "tags": [
        "famous-quotes"
      ],
      "_id": "6QtdBlEU_0hU",
      "content": "Excellence is not a skill. It is an attitude.",
      "author": "Ralph Marston",
      "authorSlug": "ralph-marston",
      "length": 45,
      "dateAdded": "2021-04-15",
      "dateModified": "2021-04-15"
    },
    {
      "tags": [
        "famous-quotes"
      ],
      "_id": "hL3bSnfjWhS-",
      "content": "Sometimes it is better to lose and do the right thing than to win and do the wrong thing.",
      "author": "Tony Blair",
      "authorSlug": "tony-blair",
      "length": 89,
      "dateAdded": "2021-04-15",
      "dateModified": "2021-04-15"
    },
    {
      "tags": [
        "famous-quotes"
      ],
      "_id": "3ZiVwxeuF5k",
      "content": "Where there is great love, there are always miracles.",
      "author": "Willa Cather",
      "authorSlug": "willa-cather",
      "length": 53,
      "dateAdded": "2021-04-15",
      "dateModified": "2021-04-15"
    },
    {
      "tags": [
        "wisdom",
        "friendship"
      ],
      "_id": "-Hqy06gxrO",
      "content": "A tree is known by its fruit; a man by his deeds. A good deed is never lost; he who sows courtesy reaps friendship, and he who plants kindness gathers love.",
      "author": "Basil of Caesarea",
      "authorSlug": "basil-of-caesarea",
      "length": 156,
      "dateAdded": "2021-04-15",
      "dateModified": "2021-04-15"
    },
    {
      "tags": [
        "wisdom"
      ],
      "_id": "Wdk5qxJq5f",
      "content": "Never interrupt your enemy when he is making a mistake.",
      "author": "Napoleon",
      "authorSlug": "napoleon",
      "length": 55,
      "dateAdded": "2021-04-15",
      "dateModified": "2021-04-15"
    },
    {
      "tags": [
        "wisdom"
      ],
      "_id": "3pvSSRDjIo_",
      "content": "We respect our elders. There is wisdom that comes from experience, and I am not going to stop learning from wise counsel.",
      "author": "Marcia Fudge",
      "authorSlug": "marcia-fudge",
      "length": 121,
      "dateAdded": "2021-04-15",
      "dateModified": "2021-04-15"
    },
    {
      "tags": [
        "wisdom"
      ],
      "_id": "hpodweiyG1",
      "content": "Not engaging in ignorance is wisdom.",
      "author": "Bodhidharma",
      "authorSlug": "bodhidharma",
      "length": 36,
      "dateAdded": "2021-04-15",
      "dateModified": "2021-04-15"
    },
    {
      "tags": [
        "wisdom"
      ],
      "_id": "l8TCjE1d2T",
      "content": "Wisdom has its root in goodness, not goodness its root in wisdom.",
      "author": "Ralph Waldo Emerson",
      "authorSlug": "ralph-waldo-emerson",
      "length": 65,
      "dateAdded": "2021-04-15",
      "dateModified": "2021-04-15"
    }
  ]
}